11/15/2016 11:07:10 AM	This log contains information about the import schema operation into project 'Core' on computer 'QATEMPAIO' by user 'dolsen'.
11/15/2016 11:07:10 AM	Import of database schema has started.
11/15/2016 11:07:11 AM	Gathering database options
11/15/2016 11:07:11 AM	Gathering users
11/15/2016 11:07:11 AM	Gathering roles
11/15/2016 11:07:11 AM	Gathering application roles
11/15/2016 11:07:11 AM	Gathering role memberships
11/15/2016 11:07:11 AM	Gathering filegroups
11/15/2016 11:07:11 AM	Gathering full-text catalogs
11/15/2016 11:07:11 AM	Gathering assemblies
11/15/2016 11:07:11 AM	Gathering certificates
11/15/2016 11:07:11 AM	Gathering asymmetric keys
11/15/2016 11:07:11 AM	Gathering symmetric keys
11/15/2016 11:07:11 AM	Gathering encrypted symmetric keys
11/15/2016 11:07:11 AM	Gathering schemas
11/15/2016 11:07:11 AM	Gathering XML schema collections
11/15/2016 11:07:11 AM	Gathering user-defined data types
11/15/2016 11:07:11 AM	Gathering user-defined types
11/15/2016 11:07:11 AM	Gathering table types
11/15/2016 11:07:11 AM	Gathering unique keys for table types
11/15/2016 11:07:11 AM	Gathering primary keys for table types
11/15/2016 11:07:11 AM	Gathering indexes for table types
11/15/2016 11:07:11 AM	Gathering check constraints for table types
11/15/2016 11:07:11 AM	Gathering default constraints for table types
11/15/2016 11:07:11 AM	Gathering partition functions
11/15/2016 11:07:11 AM	Gathering partition schemes
11/15/2016 11:07:11 AM	Gathering functions
11/15/2016 11:07:11 AM	Gathering encrypted functions
11/15/2016 11:07:11 AM	Gathering aggregates
11/15/2016 11:07:11 AM	Gathering procedures
11/15/2016 11:07:11 AM	Gathering encrypted procedures
11/15/2016 11:07:11 AM	Gathering tables
11/15/2016 11:07:12 AM	Gathering primary keys
11/15/2016 11:07:12 AM	Gathering unique constraints
11/15/2016 11:07:12 AM	Gathering foreign keys
11/15/2016 11:07:12 AM	Gathering default constraints
11/15/2016 11:07:12 AM	Gathering check constraints
11/15/2016 11:07:12 AM	Gathering views
11/15/2016 11:07:12 AM	Gathering encrypted views
11/15/2016 11:07:12 AM	Gathering indexes
11/15/2016 11:07:12 AM	Gathering statistics
11/15/2016 11:07:12 AM	Gathering full-text index stoplists
11/15/2016 11:07:12 AM	Gathering search property lists
11/15/2016 11:07:12 AM	Gathering search properties
11/15/2016 11:07:12 AM	Gathering full-text indexes
11/15/2016 11:07:12 AM	Gathering column store indexes
11/15/2016 11:07:12 AM	Gathering spatial indexes
11/15/2016 11:07:12 AM	Gathering XML indexes
11/15/2016 11:07:12 AM	Gathering Selective XML indexes
11/15/2016 11:07:12 AM	Gathering encrypted triggers
11/15/2016 11:07:12 AM	Gathering triggers
11/15/2016 11:07:12 AM	Gathering encrypted and clr ddl triggers
11/15/2016 11:07:12 AM	Gathering ddl triggers
11/15/2016 11:07:12 AM	Gathering synonyms
11/15/2016 11:07:12 AM	Gathering defaults
11/15/2016 11:07:12 AM	Gathering data constraint uddt bindings
11/15/2016 11:07:12 AM	Gathering rules
11/15/2016 11:07:12 AM	Gathering data constraint uddt bindings
11/15/2016 11:07:12 AM	Gathering message types
11/15/2016 11:07:12 AM	Gathering queues
11/15/2016 11:07:12 AM	Gathering contracts
11/15/2016 11:07:12 AM	Gathering services
11/15/2016 11:07:12 AM	Gathering event notifications
11/15/2016 11:07:12 AM	Gathering remote service bindings
11/15/2016 11:07:12 AM	Gathering broker priorities
11/15/2016 11:07:12 AM	Gathering signatures
11/15/2016 11:07:12 AM	Gathering data compression options
11/15/2016 11:07:12 AM	Gathering sequence types
11/15/2016 11:07:12 AM	Gathering extended properties
11/15/2016 11:07:12 AM	Gathering credentials
11/15/2016 11:07:12 AM	Gathering logins
11/15/2016 11:07:12 AM	Gathering server audits
11/15/2016 11:07:13 AM	Scanning project for duplicate elements
11/15/2016 11:07:13 AM	Finished duplicate element processing
11/15/2016 11:07:21 AM	Finished importing database.
11/15/2016 11:07:21 AM	A summary of the import was saved to the following location: C:\OneDriveStorage\OneDrive - Children's Miracle Network Hospitals\UnitTesting\Core\Import Schema Logs\Core_20161115060710.log
11/15/2016 11:07:21 AM	Click Finish to continue...
